\relax 
\@nameuse{bbl@beforestart}
\catcode `"\active 
\babel@aux{ngerman}{}
\@writefile{toc}{\contentsline {section}{Inhaltsverzeichnis}{}\protected@file@percent }
\bibstyle{dinat}
\bibdata{quellen}
\@writefile{toc}{\contentsline {section}{\numberline {1}erste \IeC {\"U}berschrift}{1}\protected@file@percent }
\@writefile{toc}{\contentsline {subsection}{\numberline {1.1}Unter\IeC {\"u}berschrift}{1}\protected@file@percent }
\@writefile{toc}{\contentsline {subsubsection}{\numberline {1.1.1}noch eine Ebene tiefer}{1}\protected@file@percent }
\@writefile{toc}{\contentsline {section}{Literatur}{2}\protected@file@percent }
