\babel@toc {ngerman}{}
\contentsline {section}{Inhaltsverzeichnis}{}%
\contentsline {section}{\numberline {1}erste \IeC {\"U}berschrift}{1}%
\contentsline {subsection}{\numberline {1.1}Unter\IeC {\"u}berschrift}{1}%
\contentsline {subsubsection}{\numberline {1.1.1}noch eine Ebene tiefer}{1}%
\contentsline {section}{Literatur}{2}%
